13800;MVISA001;4573766948447003;1381070746513500017;20171106;101326;0000000150.00;818;692848;590000;599;1106;000000792986;00;731011692160
13800;MVISA001;4573766948447003;1381070746513500017;20171106;101326;0000000150.00;818;692848;590000;599;1106;000000792986;00;731010692161
13800;MVISA001;4946066058407102;1381070746513500017;20171106;101326;0000000150.00;818;692848;590000;599;1106;000000792986;00;731010692162
13800;MVISA001;4946066058407102;1381070746513500017;20171106;101326;0000000150.00;818;692848;590000;599;1106;000000792986;05;731010692163
13800;MVISA001;4946066948447003;1381070746513500017;20171106;101326;0000000150.00;818;692848;590000;599;1106;000000792986;00;731010692164
13800;MVISA001;4117396948447003;1381070746513500017;20171106;101326;0000000150.00;818;692848;590000;599;1106;000000792986;00;731010692165
13800;MVISA001;4117396948447003;1381070746513500017;20171106;101326;0000000150.00;818;692848;590000;599;1106;000000792986;05;731010692166
13800;MVISA001;4573760000000039;1381070746513500017;20171106;101326;0000000150.00;818;692848;590000;599;1106;000000792986;00;731010692167
13800;MVISA001;4117395631590409;1381070746513500017;20171106;101326;0000000150.00;818;692848;590000;599;1106;000000792986;05;731010692180
13800;MVISA001;4573760000000039;1381070746513500017;20171106;101326;0000000150.00;818;692848;590000;599;1106;000000792986;00;731010692181
13800;MVISA001;4946060000000039;1381070746513500017;20171106;101326;0000000150.00;818;692848;590000;599;1106;000000792986;00;731010692182