Unique reference number,From PAN,Ledger Effect,Action code,To PAN,Transaction amount,Fees amount,TX Date and time,Fund RRN,Fund Response code,Fund Auth Number,OCT RRN (F37),Card acceptor terminal ID (F41),Card acceptor ID code (F42),Terminal Location (F43)
1509963252209,4117395631590409,Debit,OTP,4500680000002838,100,10,06/11/2017 12:14:12,731110692100,00,624841,731010692849,,,
1509963270476,4573760000000039,Debit,OTP,4500680000002846,50,10,06/11/2017 12:14:30,731111692101,00,241427,731010692846,,,
1509963308260,4946060000000039,Credit,Redeem,4573766948447003,50,0,06/11/2017 12:15:07,731110692102,00,226215,731010692847,,,
1509963330358,4117390000000252,Debit,OTP,4500680000002853,60,10,06/11/2017 12:15:30,731110692103,01,990819,731010692848,,,
1509963252209,4117395631590409,Debit,OTP,4500680000002838,100,10,06/11/2017 12:14:12,731010692109,00,624841,731010692849,,,
1509963270476,4573760000000260,Debit,OTP,4500680000002846,50,10,06/11/2017 12:14:30,731010692114,00,241427,731010692846,,,
1509963308260,4946060000000260,Credit,Redeem,4573766948447003,50,0,06/11/2017 12:15:07,731010692113,00,226215,731010692847,,,
1509963330358,4117390000000252,Debit,OTP,4500680000002853,60,10,06/11/2017 12:15:30,731010692112,01,990819,731010692848,,,
1509963252209,4946060000000252,Debit,OTP,4500680000002838,100,10,06/11/2017 12:14:12,731110692104,00,624841,731010692849,,,
1509963270476,4117395631590409,Debit,OTP,4500680000002846,50,10,06/11/2017 12:14:30,731110692105,00,241427,731010692846,,,
1509963308260,4500850000000170,Credit,Redeem,4573766948447003,50,0,06/11/2017 12:15:07,731010692106,00,226215,731010692847,,,
1509963252209,4117395631590409,Debit,OTP,4500680000002838,100,10,06/11/2017 12:14:12,731010692131,00,624841,731010692849,,,
1509963270476,4500850000000065,Debit,OTP,4500680000002846,50,10,06/11/2017 12:14:30,731010692132,00,241427,731010692846,,,
1509963308260,4117395631590409,Credit,Redeem,4573766948447003,50,0,06/11/2017 12:15:07,731010692140,00,226215,731010692847,,,
1509963270476,4500850000000065,Debit,OTP,4500850000000065,50,10,06/11/2017 12:14:30,731010692108,00,241427,731010692846,,,
1509963308260,4117395631590409,Credit,Redeem,4117395631590409,50,0,06/11/2017 12:15:07,731010692110,00,226215,731010692847,,,


